systolic_16x16/wo_sparsity/control_unit.vcd
$date
	Tue Apr 22 21:50:25 2025
$end
$version
	Icarus Verilog
$end
$timescale
	1ns
$end
$scope module tb_control_unit $end
$var wire 3 ! output_precision [2:0] $end
$var wire 1 " mem_wr_en $end
$var wire 1 # mem_rd_en $end
$var wire 32 $ mem_addr [31:0] $end
$var wire 3 % input_precision [2:0] $end
$var wire 32 & input_forward [31:0] $end
$var wire 1 ' compute_en $end
$var parameter 32 ( ARRAY_SIZE $end
$var parameter 64 ) CPU_PERIOD $end
$var parameter 32 * DATA_W $end
$var parameter 32 + INPUT_W $end
$var parameter 32 , PERIOD $end
$var parameter 32 - WEIGHT_W $end
$var reg 1 . clk $end
$var reg 10 / input_base_addr [9:0] $end
$var reg 32 0 mem_data [31:0] $end
$var reg 1 1 nRST $end
$var reg 3 2 op0_precision [2:0] $end
$var reg 3 3 op1_precision [2:0] $end
$var reg 10 4 output_base_addr [9:0] $end
$var reg 10 5 weight_base_addr [9:0] $end
$scope module DUT $end
$var wire 1 . clk $end
$var wire 10 6 input_base_addr [9:0] $end
$var wire 32 7 mem_data [31:0] $end
$var wire 1 1 nRST $end
$var wire 3 8 op0_precision [2:0] $end
$var wire 3 9 op1_precision [2:0] $end
$var wire 10 : output_base_addr [9:0] $end
$var wire 10 ; weight_base_addr [9:0] $end
$var wire 8 < mem_data_byte3 [7:0] $end
$var wire 8 = mem_data_byte2 [7:0] $end
$var wire 8 > mem_data_byte1 [7:0] $end
$var wire 8 ? mem_data_byte0 [7:0] $end
$var parameter 32 @ ARRAY_SIZE $end
$var parameter 32 A DATA_W $end
$var parameter 32 B INPUT_W $end
$var parameter 32 C WEIGHT_W $end
$var reg 32 D IBUF_0 [31:0] $end
$var reg 32 E IBUF_1 [31:0] $end
$var reg 32 F IBUF_2 [31:0] $end
$var reg 32 G IBUF_3 [31:0] $end
$var reg 10 H compute_count [9:0] $end
$var reg 1 I compute_done $end
$var reg 1 ' compute_en $end
$var reg 32 J input_forward [31:0] $end
$var reg 3 K input_precision [2:0] $end
$var reg 2 L ld_input_count [1:0] $end
$var reg 1 M ld_input_done $end
$var reg 2 N ld_weight_count [1:0] $end
$var reg 1 O ld_weight_done $end
$var reg 32 P mem_addr [31:0] $end
$var reg 1 # mem_rd_en $end
$var reg 1 " mem_wr_en $end
$var reg 32 Q next_IBUF_0 [31:0] $end
$var reg 32 R next_IBUF_1 [31:0] $end
$var reg 32 S next_IBUF_2 [31:0] $end
$var reg 32 T next_IBUF_3 [31:0] $end
$var reg 10 U next_compute_count [9:0] $end
$var reg 2 V next_ld_input_count [1:0] $end
$var reg 2 W next_ld_weight_count [1:0] $end
$var reg 3 X next_state [2:0] $end
$var reg 3 Y output_precision [2:0] $end
$var reg 3 Z state [2:0] $end
$scope begin COMB_LOGIC $end
$upscope $end
$scope begin COMPUTE_COUNT_REG $end
$upscope $end
$scope begin IBUF_COMB $end
$upscope $end
$scope begin IBUF_REG $end
$upscope $end
$scope begin INPUT_TO_COMPUTE $end
$upscope $end
$scope begin LOAD_COUNTS_REG $end
$upscope $end
$scope begin OUTPUT_LOGIC $end
$upscope $end
$scope begin REG_LOGIC $end
$upscope $end
$upscope $end
$scope task reset_dut $end
$upscope $end
$upscope $end
$enddefinitions $end
$comment Show the parameter values. $end
$dumpall
b1000 C
b1000 B
b100000 A
b100 @
b1000 -
b1010 ,
b1000 +
b100000 *
b10100 )
b100 (
$end
#0
$dumpvars
b0 Z
bx Y
b1 X
b0 W
b0 V
b0 U
b0 T
b0 S
b0 R
b0 Q
bx P
0O
b0 N
0M
b0 L
bx K
b0 J
xI
b0 H
b0 G
b0 F
b0 E
b0 D
b0 ?
b0 >
b0 =
b0 <
b0 ;
b0 :
b100 9
b100 8
b0 7
b0 6
b0 5
b0 4
b100 3
b100 2
01
b0 0
b0 /
0.
0'
b0 &
bx %
bx $
0#
0"
bx !
$end
#5
1.
#10
0.
#15
1.
#20
11
0.
#25
b100 !
b100 Y
b100 %
b100 K
b10 X
b1 Z
1.
#30
0.
#35
1#
b0 $
b0 P
b1 W
b10 Z
1.
#40
b10101010 ?
b10101010 >
b10101010 =
b10101010 <
b10101010101010101010101010101010 0
b10101010101010101010101010101010 7
0.
#45
b1 $
b1 P
b10 W
1#
b1 N
1.
#50
0.
#55
b10 $
b10 P
b11 W
1#
b10 N
1.
#60
0.
#65
b11 X
1O
b11 $
b11 P
b0 W
1#
b11 N
1.
#70
0.
#75
b10101010 T
b10101010 S
b10101010 R
b10101010 Q
b0 $
b0 P
b1 V
0O
1#
b0 N
b11 Z
1.
#80
0.
#85
b1010101010101010 T
b1010101010101010 S
b1010101010101010 R
b1010101010101010 Q
b1 $
b1 P
b10 V
1#
b10101010 G
b10101010 F
b10101010 E
b10101010 D
b1 L
1.
#90
0.
#95
b101010101010101010101010 T
b101010101010101010101010 S
b101010101010101010101010 R
b101010101010101010101010 Q
b10 $
b10 P
b11 V
1#
b1010101010101010 G
b1010101010101010 F
b1010101010101010 E
b1010101010101010 D
b10 L
1.
#100
0.
#105
b100 X
b10101010101010101010101010101010 T
b10101010101010101010101010101010 S
b10101010101010101010101010101010 R
b10101010101010101010101010101010 Q
1M
b11 $
b11 P
b0 V
1#
b101010101010101010101010 G
b101010101010101010101010 F
b101010101010101010101010 E
b101010101010101010101010 D
b11 L
1.
#110
0.
#115
b10101010 &
b10101010 J
b1 U
1'
0M
0#
b10101010101010101010101010101010 G
b10101010101010101010101010101010 F
b10101010101010101010101010101010 E
b10101010101010101010101010101010 D
b0 L
b100 Z
1.
#120
0.
#125
b10 U
b1010101010101010 &
b1010101010101010 J
b1 H
1.
#130
0.
#135
b11 U
b101010101010101010101010 &
b101010101010101010101010 J
b10 H
1.
#140
0.
#145
b100 U
b10101010101010101010101010101010 &
b10101010101010101010101010101010 J
b11 H
1.
#150
0.
#155
b101 U
b10101010101010101010101000000000 &
b10101010101010101010101000000000 J
b100 H
1.
#160
0.
#165
b110 U
b10101010101010100000000000000000 &
b10101010101010100000000000000000 J
b101 H
1.
#170
0.
#175
b111 U
b10101010000000000000000000000000 &
b10101010000000000000000000000000 J
b110 H
1.
#180
0.
#185
b1000 U
b0 &
b0 J
b111 H
1.
#190
0.
#195
b1001 U
b1000 H
1.
#200
0.
#205
b1010 U
b1001 H
1.
#210
0.
#215
b1011 U
b1010 H
1.
#220
0.
#225
b1100 U
b1011 H
1.
#230
0.
#235
b1101 U
b1100 H
1.
#240
0.
#245
b1110 U
b1101 H
1.
#250
0.
#255
b1111 U
b1110 H
1.
#260
0.
#265
b10000 U
b1111 H
1.
#270
0.
#275
b10001 U
b10000 H
1.
#280
0.
#285
b10010 U
b10001 H
1.
#290
0.
#295
b10011 U
b10010 H
1.
#300
0.
#305
b10100 U
b10011 H
1.
#310
0.
#315
b10101 U
b10100 H
1.
#320
0.
#325
b10110 U
b10101 H
1.
#330
0.
#335
b10111 U
b10110 H
1.
#340
0.
#345
b11000 U
b10111 H
1.
#350
0.
#355
b11001 U
b11000 H
1.
#360
0.
#365
b11010 U
b11001 H
1.
#370
0.
#375
b11011 U
b11010 H
1.
#380
0.
#385
b11100 U
b11011 H
1.
#390
0.
#395
b11101 U
b11100 H
1.
#400
0.
#405
b11110 U
b11101 H
1.
#410
0.
#415
b11111 U
b11110 H
1.
#420
0.
#425
b100000 U
b11111 H
1.
#430
0.
#435
b100001 U
b100000 H
1.
#440
0.
#445
b100010 U
b100001 H
1.
#450
0.
#455
b100011 U
b100010 H
1.
#460
0.
#465
b100100 U
b100011 H
1.
#470
0.
#475
b100101 U
b100100 H
1.
#480
0.
#485
b100110 U
b100101 H
1.
#490
0.
#495
b100111 U
b100110 H
1.
#500
0.
#505
b101000 U
b100111 H
1.
#510
0.
#515
b101001 U
b101000 H
1.
#520
0.
#525
b101010 U
b101001 H
1.
#530
0.
#535
b101011 U
b101010 H
1.
#540
0.
#545
b101100 U
b101011 H
1.
#550
0.
#555
b101101 U
b101100 H
1.
#560
0.
#565
b101110 U
b101101 H
1.
#570
0.
#575
b101111 U
b101110 H
1.
#580
0.
#585
b110000 U
b101111 H
1.
#590
0.
#595
b110001 U
b110000 H
1.
#600
0.
#605
b110010 U
b110001 H
1.
#610
0.
#615
b110011 U
b110010 H
1.
#620
0.
#625
b110100 U
b110011 H
1.
#630
0.
#635
b110101 U
b110100 H
1.
#640
0.
#645
b110110 U
b110101 H
1.
#650
0.
#655
b110111 U
b110110 H
1.
#660
0.
#665
b111000 U
b110111 H
1.
#670
0.
#675
b111001 U
b111000 H
1.
#680
0.
#685
b111010 U
b111001 H
1.
#690
0.
#695
b111011 U
b111010 H
1.
#700
0.
#705
b111100 U
b111011 H
1.
#710
0.
#715
b111101 U
b111100 H
1.
#720
0.
#725
b111110 U
b111101 H
1.
#730
0.
#735
b111111 U
b111110 H
1.
#740
0.
#745
b1000000 U
b111111 H
1.
#750
0.
#755
b1000001 U
b1000000 H
1.
#760
0.
#765
b1000010 U
b1000001 H
1.
#770
0.
#775
b1000011 U
b1000010 H
1.
#780
0.
#785
b1000100 U
b1000011 H
1.
#790
0.
#795
b1000101 U
b1000100 H
1.
#800
0.
#805
b1000110 U
b1000101 H
1.
#810
0.
#815
b1000111 U
b1000110 H
1.
#820
0.
#825
b1001000 U
b1000111 H
1.
#830
0.
#835
b1001001 U
b1001000 H
1.
#840
0.
#845
b1001010 U
b1001001 H
1.
#850
0.
#855
b1001011 U
b1001010 H
1.
#860
0.
#865
b1001100 U
b1001011 H
1.
#870
0.
#875
b1001101 U
b1001100 H
1.
#880
0.
#885
b1001110 U
b1001101 H
1.
#890
0.
#895
b1001111 U
b1001110 H
1.
#900
0.
#905
b1010000 U
b1001111 H
1.
#910
0.
#915
b1010001 U
b1010000 H
1.
#920
0.
#925
b1010010 U
b1010001 H
1.
#930
0.
#935
b1010011 U
b1010010 H
1.
#940
0.
#945
b1010100 U
b1010011 H
1.
#950
0.
#955
b1010101 U
b1010100 H
1.
#960
0.
#965
b1010110 U
b1010101 H
1.
#970
0.
#975
b1010111 U
b1010110 H
1.
#980
0.
#985
b1011000 U
b1010111 H
1.
#990
0.
#995
b1011001 U
b1011000 H
1.
#1000
0.
#1005
b1011010 U
b1011001 H
1.
#1010
0.
#1015
b1011011 U
b1011010 H
1.
#1020
0.
#1025
b1011100 U
b1011011 H
1.
#1030
0.
#1035
b1011101 U
b1011100 H
1.
